ID,Column1,Column2
A1,87698,1013302
B1,67548,1032553
C1,87605,1013495
D1,76543,1024557
E1,76408,1024703
A2,86546,13454
A3,90987,1019124
B3,63425,1037686
C3,98752,1011258
D3,87569,1013531
E3,78968,1021132
